# This file uses centimeters as units for non-parametric coordinates.

mtllib Paper.mtl
g default
v 8.859487 1.841220 -14.117627
v 8.859487 1.996143 -14.117627
v -21.510968 1.996143 -14.117627
v -21.510968 1.841220 -14.117627
v 8.859487 1.996143 14.117626
v -21.510968 1.996143 14.117626
v 8.859487 1.841220 14.117626
v -21.510968 1.841220 14.117626
vt 0.835201 0.025725
vt 0.164645 0.026789
vt 0.164799 0.079528
vt 0.835355 0.078464
vt 0.061364 0.384291
vt 0.061364 0.977992
vt 0.396404 0.977992
vt 0.396404 0.384291
vt 0.835201 0.195488
vt 0.164645 0.196552
vt 0.164799 0.249290
vt 0.835355 0.248226
vt 0.492438 0.384291
vt 0.492438 0.977992
vt 0.827478 0.977992
vt 0.827478 0.384291
vt 0.835201 0.097625
vt 0.164645 0.098689
vt 0.164799 0.151427
vt 0.835355 0.150363
vt 0.835201 0.277373
vt 0.164645 0.278437
vt 0.164799 0.331175
vt 0.835355 0.330111
vn -0.000000 0.000000 -1.000000
vn -0.000000 0.000000 -1.000000
vn -0.000000 0.000000 -1.000000
vn -0.000000 0.000000 -1.000000
vn -0.000000 0.000000 -1.000000
vn -0.000000 0.000000 -1.000000
vn -0.000000 1.000000 0.000000
vn -0.000000 1.000000 0.000000
vn -0.000000 1.000000 0.000000
vn -0.000000 1.000000 0.000000
vn -0.000000 1.000000 0.000000
vn -0.000000 1.000000 0.000000
vn 0.000000 -0.000000 1.000000
vn 0.000000 -0.000000 1.000000
vn 0.000000 -0.000000 1.000000
vn 0.000000 -0.000000 1.000000
vn 0.000000 -0.000000 1.000000
vn 0.000000 -0.000000 1.000000
vn 0.000000 -1.000000 -0.000000
vn 0.000000 -1.000000 -0.000000
vn 0.000000 -1.000000 -0.000000
vn 0.000000 -1.000000 -0.000000
vn 0.000000 -1.000000 -0.000000
vn 0.000000 -1.000000 -0.000000
vn -1.000000 -0.000000 0.000000
vn -1.000000 -0.000000 0.000000
vn -1.000000 -0.000000 0.000000
vn -1.000000 -0.000000 0.000000
vn -1.000000 -0.000000 0.000000
vn -1.000000 -0.000000 0.000000
vn 1.000000 0.000000 0.000000
vn 1.000000 0.000000 0.000000
vn 1.000000 0.000000 0.000000
vn 1.000000 0.000000 0.000000
vn 1.000000 0.000000 0.000000
vn 1.000000 0.000000 0.000000
s off
g Paper:Paper
usemtl Paper:PaperSG
f 1/1/1 3/3/2 2/2/3
f 1/1/4 4/4/5 3/3/6
f 2/5/7 6/7/8 5/6/9
f 2/5/10 3/8/11 6/7/12
f 5/9/13 8/11/14 7/10/15
f 5/9/16 6/12/17 8/11/18
f 7/13/19 4/15/20 1/14/21
f 7/13/22 8/16/23 4/15/24
f 4/17/25 6/19/26 3/18/27
f 4/17/28 8/20/29 6/19/30
f 7/21/31 2/23/32 5/22/33
f 7/21/34 1/24/35 2/23/36
