# File produced by Open Asset Import Library (http://www.assimp.sf.net)
# (assimp v3.1.197435470)

newmtl Office_Chair_Metal
kd 0.5 0.5 0.5
illum 1

newmtl Office_Chair_Foam_Bottom
kd 0.5 0.5 0.5
illum 1

newmtl Office_Chair_Office_chair_Plastic
kd 1 1 1
illum 1

newmtl Office_Chair_Office_chair_Cloth
kd 1 1 1
illum 1

