newmtl Wall
map_Kd C:/Users/Reymond/TEst/Assets/Materials/Wall/Cubical_Wall_basecolor.tga
map_Pm C:/Users/Reymond/TEst/Assets/Materials/Wall/Cubical_Wall_metallic.tga
bump C:/Users/Reymond/TEst/Assets/Materials/Wall/Cubical_Wall_normal.tga
disp C:/Users/Reymond/TEst/Assets/Materials/Wall/Cubical_Wall_height.tga
Kd 1 1 1
d 1

newmtl Default_Prototype
map_Kd C:/Users/Reymond/TEst/Assets/ProCore/ProBuilder/Resources/Textures/GridBox_Default.png
Kd 1 1 1
d 1

