{
    "MonoBehaviour": {
        "m_Enabled": true,
        "m_EditorHideFlags": 0,
        "m_Name": "Fbx Export Settings",
        "m_EditorClassIdentifier": "",
        "Verbose": false,
        "autoUpdaterEnabled": true,
        "launchAfterInstallation": true,
        "HideSendToUnityMenu": true,
        "BakeAnimation": true,
        "IntegrationSavePath": "C:/Users/Reymond/TEst",
        "selectedDCCApp": 1,
        "prefabSavePaths": [
            "."
        ],
        "fbxSavePaths": [
            "Assets/FBX/Assets",
            "Assets/FBX",
            "."
        ],
        "selectedFbxPath": 0,
        "selectedPrefabPath": 0,
        "dccOptionNames": [
            "Maya 2017",
            "Maya 2018"
        ],
        "dccOptionPaths": [
            "C:/Program Files/Autodesk/Maya2017/bin/maya.exe",
            "C:/Program Files/Autodesk/Maya2018/bin/maya.exe"
        ],
        "exportModelSettingsSerialize": {
            "exportFormat": 0,
            "rootMotionTransfer": "",
            "animatedSkinnedMesh": false,
            "mayaCompatibleNaming": true,
            "include": 2,
            "lodLevel": 0,
            "objectPosition": 0,
            "exportUnrendered": true
        },
        "convertToPrefabSettingsSerialize": {
            "exportFormat": 0,
            "rootMotionTransfer": "",
            "animatedSkinnedMesh": false,
            "mayaCompatibleNaming": true
        }
    }
}